
qb (arg1, arg2, ... argn)
:
- arg1 = tabelle
- arg2 = feld1
- arg3 = feld2
- ...

{
  if (tb == usr)
    q.prepare("insert into user values(?, ?......
    q.addBindValue(arg1)
    ...
  else if (....

  q.exec
}
